\relax 
\@writefile{toc}{\contentsline {section}{\numberline {1}目的}{1}\protected@file@percent }
\@writefile{toc}{\contentsline {section}{\numberline {2}ロボット・システムの動作概要}{1}\protected@file@percent }
\@writefile{toc}{\contentsline {section}{\numberline {3}ハードウェア・システム構成}{1}\protected@file@percent }
\@writefile{toc}{\contentsline {section}{\numberline {4}ソフトウェアの構成}{1}\protected@file@percent }
\@writefile{lof}{\contentsline {figure}{\numberline {1}{\ignorespaces ロボットの外観}}{2}\protected@file@percent }
\newlabel{fig:ロボットの外観}{{1}{2}}
\@writefile{lof}{\contentsline {figure}{\numberline {2}{\ignorespaces システム構成図}}{2}\protected@file@percent }
\newlabel{fig:システム構成図}{{2}{2}}
\@writefile{lof}{\contentsline {figure}{\numberline {3}{\ignorespaces ROS2ノードの構成図}}{2}\protected@file@percent }
\newlabel{fig:ROS2ノードの構成図}{{3}{2}}
\@writefile{toc}{\contentsline {subsection}{\numberline {4.1}経路データの生成}{2}\protected@file@percent }
\@writefile{toc}{\contentsline {subsubsection}{\numberline {4.1.1}蟻コロニー最適化}{3}\protected@file@percent }
\@writefile{toc}{\contentsline {subsection}{\numberline {4.2}追従ノードの詳細}{3}\protected@file@percent }
\@writefile{toc}{\contentsline {subsubsection}{\numberline {4.2.1}モデル予測制御(MPC: Model Predictive Contro)}{3}\protected@file@percent }
\@writefile{lof}{\contentsline {figure}{\numberline {4}{\ignorespaces MPCのブロック線図}}{4}\protected@file@percent }
\newlabel{fig:MPCのブロック線図}{{4}{4}}
\newlabel{tw_model}{{1}{4}}
\newlabel{mpc_cost_func}{{2}{4}}
\@writefile{toc}{\contentsline {subsubsection}{\numberline {4.2.2}速度目標値の計算}{4}\protected@file@percent }
\newlabel{vel_target}{{3}{5}}
\@writefile{toc}{\contentsline {subsubsection}{\numberline {4.2.3}gazeboを使用したシミュレーション}{5}\protected@file@percent }
\@writefile{lof}{\contentsline {figure}{\numberline {5}{\ignorespaces 対向二輪ロボットGazeboシミュレーション}}{5}\protected@file@percent }
\newlabel{fig:対向二輪ロボットGazeboシミュレーション}{{5}{5}}
\@writefile{toc}{\contentsline {subsection}{\numberline {4.3}画像処理ノードの詳細}{5}\protected@file@percent }
\citation{opencv}
\@writefile{toc}{\contentsline {section}{\numberline {5}結果}{6}\protected@file@percent }
\@writefile{lof}{\contentsline {figure}{\numberline {6}{\ignorespaces 画像処理ノードのフローチャート}}{7}\protected@file@percent }
\newlabel{fig:画像処理ノードのフローチャート}{{6}{7}}
\@writefile{toc}{\contentsline {subsection}{\numberline {5.1}経路生成}{7}\protected@file@percent }
\@writefile{toc}{\contentsline {subsection}{\numberline {5.2}追従ノード}{8}\protected@file@percent }
\@writefile{toc}{\contentsline {subsection}{\numberline {5.3}画像処理ノード}{8}\protected@file@percent }
\@writefile{lof}{\contentsline {figure}{\numberline {7}{\ignorespaces ロボットマーカーの位置姿勢1}}{8}\protected@file@percent }
\newlabel{fig:ロボットマーカーの位置姿勢1}{{7}{8}}
\@writefile{lof}{\contentsline {figure}{\numberline {8}{\ignorespaces ロボットマーカーの位置姿勢2}}{8}\protected@file@percent }
\newlabel{fig:ロボットマーカーの位置姿勢2}{{8}{8}}
\@writefile{lof}{\contentsline {figure}{\numberline {9}{\ignorespaces ロボットマーカーの位置姿勢3}}{9}\protected@file@percent }
\newlabel{fig:ロボットマーカーの位置姿勢3}{{9}{9}}
\@writefile{lof}{\contentsline {figure}{\numberline {10}{\ignorespaces ロボットマーカーの位置姿勢4}}{9}\protected@file@percent }
\newlabel{fig:ロボットマーカーの位置姿勢4}{{10}{9}}
\@writefile{lof}{\contentsline {figure}{\numberline {11}{\ignorespaces ロボットマーカーの位置姿勢5}}{9}\protected@file@percent }
\newlabel{fig:ロボットマーカーの位置姿勢5}{{11}{9}}
\@writefile{lot}{\contentsline {table}{\numberline {1}{\ignorespaces ロボットマーカーの位置姿勢}}{9}\protected@file@percent }
\newlabel{tab:ロボットマーカーの位置姿勢}{{1}{9}}
\@writefile{toc}{\contentsline {section}{\numberline {6}考察}{9}\protected@file@percent }
\@writefile{toc}{\contentsline {subsection}{\numberline {6.1}経路生成}{10}\protected@file@percent }
\@writefile{toc}{\contentsline {subsection}{\numberline {6.2}追従ノード}{10}\protected@file@percent }
\@writefile{lof}{\contentsline {figure}{\numberline {12}{\ignorespaces 正常な予測区間}}{10}\protected@file@percent }
\newlabel{fig:正常な予測区間}{{12}{10}}
\@writefile{lof}{\contentsline {figure}{\numberline {13}{\ignorespaces 異常な予測区間}}{10}\protected@file@percent }
\newlabel{fig:異常な予測区間}{{13}{10}}
\@writefile{toc}{\contentsline {subsection}{\numberline {6.3}画像処理ノード}{11}\protected@file@percent }
\@writefile{lof}{\contentsline {figure}{\numberline {14}{\ignorespaces 鏡面反射あり}}{11}\protected@file@percent }
\newlabel{fig:鏡面反射あり}{{14}{11}}
\@writefile{lof}{\contentsline {figure}{\numberline {15}{\ignorespaces 鏡面反射なし}}{11}\protected@file@percent }
\newlabel{fig:鏡面反射なし}{{15}{11}}
\@writefile{toc}{\contentsline {subsection}{\numberline {6.4}ROS2プラットフォームを用いたことによるメリット・デメリット}{11}\protected@file@percent }
\bibcite{蟻コロニー最適化 ー Wikipedia}{1}
\bibcite{gazebo}{2}
\bibcite{モデル予測制御（MPC）による軌道追従制御}{3}
\bibcite{モデル予測制御}{4}
\@writefile{toc}{\contentsline {section}{\numberline {7}結論}{12}\protected@file@percent }
\bibcite{opencv}{5}
\bibcite{ros2}{6}
\bibcite{}{7}
\newlabel{lst:経路生成プログラム}{{1}{13}}
\@writefile{lol}{\contentsline {lstlisting}{\numberline {1}経路生成プログラム}{13}\protected@file@percent }
\newlabel{lst:オイラー角とクオータニオンを相互変換する関数のモジュール}{{2}{18}}
\@writefile{lol}{\contentsline {lstlisting}{\numberline {2}オイラー角とクオータニオンを相互変換する関数のモジュール}{18}\protected@file@percent }
\newlabel{lst:追従用モデル予測制御クラス}{{3}{19}}
\@writefile{lol}{\contentsline {lstlisting}{\numberline {3}追従用モデル予測制御クラス}{19}\protected@file@percent }
\newlabel{lst:追従ノードのプログラム}{{4}{26}}
\@writefile{lol}{\contentsline {lstlisting}{\numberline {4}追従ノードのプログラム}{26}\protected@file@percent }
\newlabel{lst:画像処理ノードのプログラム}{{5}{34}}
\@writefile{lol}{\contentsline {lstlisting}{\numberline {5}画像処理ノードのプログラム}{34}\protected@file@percent }
\newlabel{lst:ホモグラフィ変換のクラス}{{6}{42}}
\@writefile{lol}{\contentsline {lstlisting}{\numberline {6}ホモグラフィ変換のクラス}{42}\protected@file@percent }
\newlabel{lst:マーカーの多角形を表すクラス}{{7}{44}}
\@writefile{lol}{\contentsline {lstlisting}{\numberline {7}マーカーの多角形を表すクラス}{44}\protected@file@percent }
